[gd_scene load_steps=2 format=3 uid="uid://dvw2yeihijuil"]

[ext_resource type="Script" path="res://scenes/map/map_generator.gd" id="1_4msn0"]

[node name="Node2D" type="Node2D"]
scale = Vector2(50, 50)

[node name="Camera2D" type="Camera2D" parent="."]

[node name="Node2D" type="Node2D" parent="."]
script = ExtResource("1_4msn0")
regionSize = Vector2(10, 5)
displayRadius = 0.4
